{
	"capabilities":
	[{
		"version":"9",
		"maxInstances": 1,
		"platform": "ANDROID",
    "automationName": "UIAutomator2",
    "deviceName": "MI A1",
    "udid": "4a8300db9805",
		"appPackage": "com.bkash.businessapp.sit",
		"autoGrantPermissions": true,
		"appActivity": "com.bkash.businessapp.ui.activity.SplashActivity",
		"systemPort": 8201,
		"adbExecTimeout": 30000
  }
	],
	"configuration": {
		"cleanUpCycle": 2000,
		"timeout": 30000,
		"proxy": "org.openqa.grid.selenium.proxy.DefaultRemoteProxy",
		"url": "http://127.0.0.1:4725/wd/hub",
		"maxSession": 1,
		"port": "4725",
		"host": "127.0.0.1",
		"register": true,
		"registerCycle": 5000,
		"hubPort": "4444",
		"hubHost": "127.0.0.1"
	}
}